digraph G {
	label0->RecvOp1;
	RecvOp1->SendOp2;
	SendOp2->SendOp3;
	SendOp3->RecvOp4;
	RecvOp4->SendOp5;
	SendOp5->SendOp6;
	SendOp6->label7;
	SendOp3->RecvOp8;
	RecvOp8->SendOp9;
	SendOp9->label7;
	label10->NewChanOp11;
	NewChanOp11->NewChanOp12;
	NewChanOp12->NewChanOp13;
	NewChanOp13->NewChanOp14;
	NewChanOp14->NewChanOp15;
	NewChanOp15->NewChanOp16;
	NewChanOp16->NewChanOp17;
	NewChanOp17->NewChanOp18;
	NewChanOp18->NewChanOp19;
	NewChanOp19->NewChanOp20;
	NewChanOp20->NewChanOp21;
	NewChanOp21->NewChanOp22;
	NewChanOp22->NewChanOp23;
	NewChanOp23->NewChanOp24;
	NewChanOp24->NewChanOp25;
	NewChanOp25->NewChanOp26;
	NewChanOp26->RecvOp27;
	RecvOp27->RecvOp28;
	RecvOp28->RecvOp29;
	label30->SendOp31;
	SendOp31->RecvOp32;
	RecvOp32->SendOp33;
	SendOp33->SendOp34;
	label35->RecvOp36;
	RecvOp36->RecvOp37;
	RecvOp37->NoOp38;
	NoOp38->SendOp39;
	SendOp39->RecvOp40;
	RecvOp40->SendOp41;
	SendOp41->label42;
	RecvOp37->NoOp43;
	NoOp43->SendOp44;
	SendOp44->SendOp45;
	SendOp45->label42;
	subgraph "cluster_buyer1_2775" {
	RecvOp32 [ label="Recv (*main.SessionChannel).make.t3@1", shape=rect, style=solid ];
	SendOp31 [ label="Send (*main.SessionChannel).make.t1@1", shape=rect, style=solid ];
	SendOp33 [ label="Send (*main.SessionChannel).make.t3@0", shape=rect, style=solid ];
	SendOp34 [ label="Send main.main.t6@0", shape=rect, style=solid ];
	label30 [ label="buyer1_2775", shape=plaintext, ];

}
;
	subgraph "cluster_buyer2_2834" {
	NoOp38 [ label="(Empty)", shape=rect ];
	NoOp43 [ label="(Empty)", shape=rect ];
	RecvOp36 [ label="Recv (*main.SessionChannel).make.t3@2", shape=rect, style=solid ];
	RecvOp37 [ label="Recv (*main.SessionChannel).make.t3@0", shape=rect, style=solid ];
	RecvOp40 [ label="Recv (*main.SessionChannel).make.t7@2", shape=rect, style=solid ];
	SendOp39 [ label="Send (*main.SessionChannel).make.t5@2", shape=rect, style=solid ];
	SendOp41 [ label="Send main.main.t6@0", shape=rect, style=solid ];
	SendOp44 [ label="Send (*main.SessionChannel).make.t9@2", shape=rect, style=solid ];
	SendOp45 [ label="Send main.main.t6@0", shape=rect, style=solid ];
	label35 [ label="buyer2_2834", shape=plaintext, ];
	label42 [ label="main.buyer2#2", shape=plaintext, ];

}
;
	subgraph "cluster_main" {
	NewChanOp11 [ color=red, label="Channel (*main.SessionChannel).make.t1@0 Type:string", shape=rect ];
	NewChanOp12 [ color=red, label="Channel (*main.SessionChannel).make.t3@0 Type:int", shape=rect ];
	NewChanOp13 [ color=red, label="Channel (*main.SessionChannel).make.t5@0 Type:main.Address", shape=rect ];
	NewChanOp14 [ color=red, label="Channel (*main.SessionChannel).make.t7@0 Type:main.Date", shape=rect ];
	NewChanOp15 [ color=red, label="Channel (*main.SessionChannel).make.t9@0 Type:main.Bye", shape=rect ];
	NewChanOp16 [ color=red, label="Channel (*main.SessionChannel).make.t1@1 Type:string", shape=rect ];
	NewChanOp17 [ color=red, label="Channel (*main.SessionChannel).make.t3@1 Type:int", shape=rect ];
	NewChanOp18 [ color=red, label="Channel (*main.SessionChannel).make.t5@1 Type:main.Address", shape=rect ];
	NewChanOp19 [ color=red, label="Channel (*main.SessionChannel).make.t7@1 Type:main.Date", shape=rect ];
	NewChanOp20 [ color=red, label="Channel (*main.SessionChannel).make.t9@1 Type:main.Bye", shape=rect ];
	NewChanOp21 [ color=red, label="Channel (*main.SessionChannel).make.t1@2 Type:string", shape=rect ];
	NewChanOp22 [ color=red, label="Channel (*main.SessionChannel).make.t3@2 Type:int", shape=rect ];
	NewChanOp23 [ color=red, label="Channel (*main.SessionChannel).make.t5@2 Type:main.Address", shape=rect ];
	NewChanOp24 [ color=red, label="Channel (*main.SessionChannel).make.t7@2 Type:main.Date", shape=rect ];
	NewChanOp25 [ color=red, label="Channel (*main.SessionChannel).make.t9@2 Type:main.Bye", shape=rect ];
	NewChanOp26 [ color=red, label="Channel main.main.t6@0 Type:bool", shape=rect ];
	RecvOp27 [ label="Recv main.main.t6@0", shape=rect, style=solid ];
	RecvOp28 [ label="Recv main.main.t6@0", shape=rect, style=solid ];
	RecvOp29 [ label="Recv main.main.t6@0", shape=rect, style=solid ];
	label10 [ label="main", shape=plaintext, ];

}
;
	subgraph "cluster_seller_2893" {
	RecvOp1 [ label="Recv (*main.SessionChannel).make.t1@1", shape=rect, style=solid ];
	RecvOp4 [ label="Recv (*main.SessionChannel).make.t5@2 nondet", shape=rect, style=dashed ];
	RecvOp8 [ label="Recv (*main.SessionChannel).make.t9@2 nondet", shape=rect, style=dashed ];
	SendOp2 [ label="Send (*main.SessionChannel).make.t3@1", shape=rect, style=solid ];
	SendOp3 [ label="Send (*main.SessionChannel).make.t3@2", shape=rect, style=solid ];
	SendOp5 [ label="Send (*main.SessionChannel).make.t7@2", shape=rect, style=solid ];
	SendOp6 [ label="Send main.main.t6@0", shape=rect, style=solid ];
	SendOp9 [ label="Send main.main.t6@0", shape=rect, style=solid ];
	label0 [ label="seller_2893", shape=plaintext, ];
	label7 [ label="main.seller#1", shape=plaintext, ];

}
;

}
